Proyecto R
…
7. Tweets disponibles.

timeline <- get_timeline(nameUser)
timeline

## # A tibble: 100 x 42
##    status_id  created_at          user_id screen_name text          source
##  * <chr>      <dttm>              <chr>   <chr>       <chr>         <chr> 
##  1 100665318… 2018-06-12 21:43:16 249693… Milenio     Ella es Lore… Tweet…
##  2 100665254… 2018-06-12 21:40:43 249693… Milenio     "RT @laafici… Tweet…
##  3 100665072… 2018-06-12 21:33:31 249693… Milenio     "#ENVIVO por… Tweet…
##  4 100665050… 2018-06-12 21:32:38 249693… Milenio     https://t.co… Peris…
##  5 100664990… 2018-06-12 21:30:15 249693… Milenio     Con su vesti… Tweet…
##  6 100664833… 2018-06-12 21:24:00 249693… Milenio     ▶VIDEO | ¿Es… Tweet…
##  7 100664807… 2018-06-12 21:22:57 249693… Milenio     #ÚLTIMAHORA … Tweet…
##  8 100664732… 2018-06-12 21:20:00 249693… Milenio     "▶ VIDEO | \… Tweet…
##  9 100664632… 2018-06-12 21:16:01 249693… Milenio     "\"Usted más… Tweet…
## 10 100664583… 2018-06-12 21:14:05 249693… Milenio     "\"Mira cómo… Tweet…
## # ... with 90 more rows, and 36 more variables: reply_to_status_id <lgl>,
## #   reply_to_user_id <lgl>, reply_to_screen_name <lgl>, is_quote <lgl>,
## #   is_retweet <lgl>, favorite_count <int>, retweet_count <int>,
## #   hashtags <list>, symbols <list>, urls_url <list>, urls_t.co <list>,
## #   urls_expanded_url <list>, media_url <list>, media_t.co <list>,
## #   media_expanded_url <list>, media_type <list>, ext_media_url <list>,
## #   ext_media_t.co <list>, ext_media_expanded_url <list>,
## #   ext_media_type <lgl>, mentions_user_id <list>,
## #   mentions_screen_name <list>, lang <chr>, quoted_status_id <chr>,
…
9. Obtener amigos.

Obtenemos las cuentas de los amigos del usuario del paso 5.

friend <- get_friends(nameUser)
friend

## # A tibble: 145 x 2
##    user    user_id           
##    <chr>   <chr>             
##  1 Milenio 104332277         
##  2 Milenio 149295312         
##  3 Milenio 16676396          
##  4 Milenio 97017966          
##  5 Milenio 64429737          
##  6 Milenio 139595087         
##  7 Milenio 42691116          
##  8 Milenio 34313570          
##  9 Milenio 965674731763531776
## 10 Milenio 2788136904        
## # ... with 135 more rows

10. Porcentaje.

¿qué porcentaje de sus seguidores también son seguidos por el usuario?

da <- users_data(unam)
da

## # A tibble: 1,280 x 20
##    user_id  name   screen_name  location description       url   protected
##    <chr>    <chr>  <chr>        <chr>    <chr>             <chr> <lgl>    
##  1 1400651… Notic… noticiasdel6 Posadas… Canal de Noticia… http… FALSE    
##  2 1442142… Marco… Marcross10   Ciudad … Ing.Civil,..:Tal… <NA>  FALSE    
##  3 1220746… Elit … ElitInfra    México,… Expertos integra… http… FALSE    
##  4 70548028 Obras… RevistaObras México   45 años con lo m… http… FALSE    
##  5 1359953… Penél… PenelopeCHG  Ciudad … Oficial de Incid… <NA>  FALSE    
##  6 1646637… ターゲット… Diannekorin  ""       Siendo yo y solo… <NA>  FALSE    
##  7 64456342 Cienc… Ciencia_UNAM México   Síguenos y descu… http… FALSE    
##  8 3081911… Fanbo… fanbolero    México   TU DOSIS DE FUTB… http… FALSE    
##  9 1302462… Psicó… cceessaarrm… ""       ""                <NA>  FALSE    
## 10 9986668… Lizet… Liz_GarridoS Ciudad … Tu vara y tu cay… <NA>  FALSE    
## # ... with 1,270 more rows, and 13 more variables: followers_count <int>,
## #   friends_count <int>, listed_count <int>, statuses_count <int>,
## #   favourites_count <int>, account_created_at <dttm>, verified <lgl>,
## #   profile_url <chr>, profile_expanded_url <chr>, account_lang <chr>,
## #   profile_banner_url <chr>, profile_background_url <chr>,
## #   profile_image_url <chr>

11. Tendencias.

Buscamos primero cuales son las tendencias disponibles.

available <- trends_available()
available

## # A tibble: 467 x 8
##    name       url      parentid country woeid countryCode  code place_type
##  * <chr>      <chr>       <int> <chr>   <int> <chr>       <int> <chr>     
##  1 Worldwide  http://…        0 ""          1 <NA>           19 Supername 
##  2 Winnipeg   http://… 23424775 Canada   2972 CA              7 Town      
##  3 Ottawa     http://… 23424775 Canada   3369 CA              7 Town      
##  4 Quebec     http://… 23424775 Canada   3444 CA              7 Town      
##  5 Montreal   http://… 23424775 Canada   3534 CA              7 Town      
##  6 Toronto    http://… 23424775 Canada   4118 CA              7 Town      
##  7 Edmonton   http://… 23424775 Canada   8676 CA              7 Town      
##  8 Calgary    http://… 23424775 Canada   8775 CA              7 Town      
##  9 Vancouver  http://… 23424775 Canada   9807 CA              7 Town      
## 10 Birmingham http://… 23424975 United… 12723 GB              7 Town      
## # ... with 457 more rows

Buscamos la tendencias en un país.

trends <- get_trends(available$name[7])
trends

## # A tibble: 50 x 9
##    trend   url           promoted_content query   tweet_volume place woeid
##  * <chr>   <chr>         <lgl>            <chr>          <int> <chr> <int>
##  1 #1000W… http://twitt… NA               %23100…           NA Edmo…  8676
##  2 Alberta http://twitt… NA               Alberta        10303 Edmo…  8676
##  3 #yegwx  http://twitt… NA               %23yeg…           NA Edmo…  8676
##  4 #ABRoa… http://twitt… NA               %23ABR…           NA Edmo…  8676
##  5 #Thank… http://twitt… NA               %23Tha…        13869 Edmo…  8676
##  6 #E32018 http://twitt… NA               %23E32…       719308 Edmo…  8676
##  7 Trump   http://twitt… NA               Trump        4462580 Edmo…  8676
##  8 La CAQ  http://twitt… NA               %22La+…           NA Edmo…  8676
##  9 Time W… http://twitt… NA               %22Tim…        30340 Edmo…  8676
## 10 Smash   http://twitt… NA               Smash         451001 Edmo…  8676
## # ... with 40 more rows, and 2 more variables: as_of <dttm>,
## #   created_at <dttm>
